[{
    "type": "cardiovascular",
    "condition": "High blood pressure"
  }, {
    "type": "cardiovascular",
    "condition": "Cardiac Arrest"
  }, {
    "type": "cardiovascular",
    "condition": "Arrhythmia"
  }, {
    "type": "cardiovascular",
    "condition": "Coronary heart disease"
  }, {
    "type": "gastrointestinal",
    "condition": "IBS"
  }, {
    "type": "gastrointestinal",
    "condition": "Crohn's Disease"
  }, {
    "type": "gastrointestinal",
    "condition": "Gallstones"
  }, {
    "type": "psychological",
    "condition": "Depression"
  }, {
    "type": "psychological",
    "condition": "Anxiety"
  }, {
    "type": "psychological",
    "condition": "Stress"
  }, {
    "type": "psychological",
    "condition": "Insomnia"
  }, {
    "type": "other",
    "condition": "Cancer"
  }, {
    "type": "other",
    "condition": "Diabetes"
}]