[
    {
        "question": "Do you smoke any tobacco products?",
        "subquestion": "How much and how often?",
        "suffer": false 
    },
    {
        "question": "Do you drink alcohol?",
        "subquestion": "How much and how often?",
        "suffer": false
    },
    {
        "question": "Have you regularly used illicit drugs?",
        "subquestion": "How much and how often?",
        "suffer": false
    },
    {
        "question": "Current medications",
        "subquestion": "Please list any medications you are currently taking including non-prescription medications, vitamins and supplements.",
        "suffer": false
    },
    {
        "question": "Medication allergies or reactions",
        "subquestion": "Please list any medication allergies or reactions",
        "suffer": false
    },
    {
        "question": "List any surgeries or hospital stays you have had and their approximate date / year",
        "subquestion": "Type of surgery or reason for hospitalization",
        "suffer": false
    }
]